tests/fixtures/example.vcd
$date
    Tue Apr 14 17:15:11 2026
$end
$version
    Icarus Verilog
$end
$timescale
    1ps
$end
$scope module tb_circuit $end
$var wire 1 ! out $end
$var reg  1 " w   $end
$var reg  1 # x   $end
$var reg  1 $ y   $end
$var reg  1 % z   $end
$scope module uut $end
$var wire 1 & and1_out  $end
$var wire 1 ' and2_out  $end
$var wire 1 ( nand1_out $end
$var wire 1 ) not_w     $end
$var wire 1 * not_x     $end
$var wire 1 + not_y     $end
$var wire 1 , not_z     $end
$var wire 1 ! out $end
$var wire 1 " w   $end
$var wire 1 # x   $end
$var wire 1 $ y   $end
$var wire 1 % z   $end
$upscope $end
$scope begin $ivl_for_loop0 $end
$var integer 32 - i [31:0] $end
$upscope $end
$upscope $end
$enddefinitions $end
$comment Show the parameter values. $end
$dumpall
$end
#0
$dumpvars
b0 -
1,
1+
1*
1)
0(
0'
1&
0%
0$
0#
0"
0!
$end
#10000
1(
1!
0,
1'
1%
b1 -
#20000
0!
0(
0+
1,
0'
1$
0%
b10 -
#30000
1!
1(
0,
1%
b11 -
#40000
1!
1(
0&
0*
1+
1,
1#
0$
0%
b100 -
#50000
0,
1'
1%
b101 -
#60000
0+
1,
0'
1$
0%
b110 -
#70000
0,
1%
b111 -
#80000
0)
1*
1+
1,
1"
0#
0$
0%
b1000 -
#90000
0,
1'
1%
b1001 -
#100000
0+
1,
0'
1$
0%
b1010 -
#110000
0,
1%
b1011 -
#120000
0*
1+
1,
1#
0$
0%
b1100 -
#130000
0,
1'
1%
b1101 -
#140000
0+
1,
0'
1$
0%
b1110 -
#150000
0,
1%
b1111 -
#160000
b10000 -
